%YAML 1.1
%TAG !u! tag:unity3d.com,2011:
--- !u!114 &11400000
MonoBehaviour:
  m_ObjectHideFlags: 0
  m_CorrespondingSourceObject: {fileID: 0}
  m_PrefabInternal: {fileID: 0}
  m_GameObject: {fileID: 0}
  m_Enabled: 1
  m_EditorHideFlags: 0
  m_Script: {fileID: 11500000, guid: 556998a1705bf4a4f9d07ef957406164, type: 3}
  m_Name: DodgeLeft
  m_EditorClassIdentifier: 
  isAttack: 0
  SkillName: Dodge Left
  Type: 4
  Damage: 20
  ParticlesPrefab: {fileID: 1215108579885340, guid: 7fd546403963d4cd6a8753c03692929e,
    type: 2}
  WhiffAudio: {fileID: 0}
  HitAudio: {fileID: 8300000, guid: 724d3e614ee1a4de5b8a9f9b65792e1f, type: 3}
  AnimatorTrigger: DodgeLeft
  ButtonColour: {r: 0.9843137, g: 0.015686275, b: 0.9712172, a: 1}
