%YAML 1.1
%TAG !u! tag:unity3d.com,2011:
--- !u!114 &11400000
MonoBehaviour:
  m_ObjectHideFlags: 0
  m_CorrespondingSourceObject: {fileID: 0}
  m_PrefabInternal: {fileID: 0}
  m_GameObject: {fileID: 0}
  m_Enabled: 1
  m_EditorHideFlags: 0
  m_Script: {fileID: 11500000, guid: 14a35d582732a405ab2eeb2ec01995f3, type: 3}
  m_Name: Hathor
  m_EditorClassIdentifier: 
  FighterName: Hathor
  Stats:
    HealthPoints: 1000
    Speed: 80
    Attack: 40
    Defence: 25
    Accuracy: 15
    Evade: 75
    SkillList:
    - {fileID: 11400000, guid: c8e946773ebe5489087990d4c4239957, type: 2}
    - {fileID: 11400000, guid: 1376639cd56c44e74b1b0b3888f43cf1, type: 2}
    - {fileID: 11400000, guid: 4b75a7cac4a0d4efa9908e12b2a33bdb, type: 2}
    - {fileID: 11400000, guid: 308c5afd650194d5e9c68e0e6aaebaf1, type: 2}
    - {fileID: 11400000, guid: d8c6b5233b3834534855c494905d60b2, type: 2}
    - {fileID: 11400000, guid: 465e92398b4f141e180a09353e391911, type: 2}
  MaxHealth: 1000
  isAttacking: 0
  exclaimAudio: {fileID: 8300000, guid: 082169084c45ecc4284e9da1f79383b9, type: 3}
  SelectedSkill: {fileID: 0}
